{
  "type": "minecraft:crafting_shapeless",
  "ingredients": [
  [
      {
        "item": "minecraft:white_bed"
      },
	  {
        "item": "minecraft:orange_bed"
      },
	  {
        "item": "minecraft:magenta_bed"
      },
	  {
        "item": "minecraft:light_blue_bed"
      },
	  {
        "item": "minecraft:yellow_bed"
      },
	  {
        "item": "minecraft:lime_bed"
      },
	  {
        "item": "minecraft:pink_bed"
      },
	  {
        "item": "minecraft:gray_bed"
      },
	  {
        "item": "minecraft:light_gray_bed"
      },
	  {
        "item": "minecraft:cyan_bed"
      },
	  {
        "item": "minecraft:purple_bed"
      },
	  {
        "item": "minecraft:blue_bed"
      },
	  {
        "item": "minecraft:brown_bed"
      },
	  {
        "item": "minecraft:green_bed"
      },
	  {
        "item": "minecraft:red_bed"
      },
	  {
        "item": "minecraft:black_bed"
      }
	],
	{
      "item": "goodnightsleep:hope_mushroom"
  },
  {
      "item": "goodnightsleep:despair_mushroom"
  }
  ],
  "result": {
    "item": "goodnightsleep:strange_bed_item"
  }
}