{
    "textures": {
        "particle": "goodnightsleep:block/other/rainbow_start_corner",
        "front": "goodnightsleep:block/other/rainbow_end_corner",
        "back": "goodnightsleep:block/other/rainbow_start_corner"
    },
    "elements": [
        {   "from": [ 0, 0, 6 ],
            "to": [ 16, 16, 10 ],
            "faces": {
                "north": { "uv": [ 0, 0, 16, 16 ], "texture": "#front" },
                "south": { "uv": [ 0, 0, 16, 16 ], "texture": "#back" }
            }
        }
    ]
}
