{
  "display": {
    "icon": {
      "item": "goodnightsleep:strange_bed_item"
    },
    "title": {
      "translate": "advancements.goodnightsleep.root.title"
    },
    "description": {
      "translate": "advancements.goodnightsleep.root.desc"
    },
    "frame": "task",
    "show_toast": false,
    "announce_to_chat": false,
    "hidden": false,
    "background": "goodnightsleep:textures/block/natural/dream_dirt.png"
  },
  "criteria": {
    "entered_dream": {
      "trigger": "minecraft:changed_dimension",
      "conditions": {
        "to": "goodnightsleep:good_dream"
      }
    },
    "entered_nightmare": {
      "trigger": "minecraft:changed_dimension",
      "conditions": {
        "to": "goodnightsleep:nightmare"
      }
    }
  },
  "requirements": [
    [
      "entered_dream",
      "entered_nightmare"
    ]
  ]
}