{
	"variants": {
		"axis=y":  { "model": "goodnightsleep:block/stripped_white_log" },
		"axis=z":   { "model": "goodnightsleep:block/stripped_white_log", "x": 90 },
		"axis=x":   { "model": "goodnightsleep:block/stripped_white_log", "x": 90, "y": 90 }
	}
}
