{
	"variants": {
		"facing=north": {
			"model": "goodnightsleep:block/white_chest"
		},
		"facing=west": {
			"model": "goodnightsleep:block/white_chest"
		},
		"facing=east": {
			"model": "goodnightsleep:block/white_chest"
		},
		"facing=south": {
			"model": "goodnightsleep:block/white_chest"
		}
	}
}
