{
	"replace": false,
	"values": [
		"goodnightsleep:candy_block",
		"goodnightsleep:rainbow_block",
		"goodnightsleep:positite_block",
		"goodnightsleep:necrum_block",
		"goodnightsleep:zitrite_block",
		"goodnightsleep:negatite_block"
	]
}