{
	"type": "minecraft:block",
	"pools": [
		{
			"name": "block",
			"rolls": 1,
			"entries": [
				{
					"type": "minecraft:item",
					"functions": [
	                {
	                  "function": "minecraft:set_count",
	                  "count": {
	                    "min": 1.0,
	                    "max": 4.0,
	                    "type": "minecraft:uniform"
	                  }
	                },
	                {
	                  "function": "minecraft:limit_count",
	                  "limit": {
	                    "min": 0
	                  }
	                },
	                {
	                  "function": "minecraft:explosion_decay"
	                }
              		],
					"name": "goodnightsleep:candy"
				}
			],
			"conditions": [
				{
					"condition": "minecraft:survives_explosion"
				}
			]
		}
	]
}
